/home/thiago/Área de Trabalho/automationgitci/src/test/java/WebSuporte/Generator.java
/home/thiago/Área de Trabalho/automationgitci/src/test/java/WebSuporte/Screenshot.java
/home/thiago/Área de Trabalho/automationgitci/src/test/java/Pages/PageObjectsBuscador.java
/home/thiago/Área de Trabalho/automationgitci/src/test/java/tests/Feature/Step/realiza_busca_Step.java
/home/thiago/Área de Trabalho/automationgitci/src/test/java/tests/Feature/Step/Hooks.java
/home/thiago/Área de Trabalho/automationgitci/src/test/java/tests/Feature/RunnerTest.java
/home/thiago/Área de Trabalho/automationgitci/src/test/java/WebSuporte/WebAccessNavigator.java
/home/thiago/Área de Trabalho/automationgitci/src/test/java/Pages/BaseUrl.java
